%YAML 1.1
%TAG !u! tag:unity3d.com,2011:
--- !u!114 &11400000
MonoBehaviour:
  m_ObjectHideFlags: 0
  m_CorrespondingSourceObject: {fileID: 0}
  m_PrefabInstance: {fileID: 0}
  m_PrefabAsset: {fileID: 0}
  m_GameObject: {fileID: 0}
  m_Enabled: 1
  m_EditorHideFlags: 0
  m_Script: {fileID: 11500000, guid: 4b400ee936d64d0e93e3892c7c321e09, type: 3}
  m_Name: SoundDatabase_General
  m_EditorClassIdentifier: 
  DatabaseName: General
  OutputAudioMixerGroup: {fileID: 0}
  SoundNames:
  - No Sound
  - No Sound
  Database:
  - {fileID: 8903234588263777631}
--- !u!114 &8903234588263777631
MonoBehaviour:
  m_ObjectHideFlags: 0
  m_CorrespondingSourceObject: {fileID: 0}
  m_PrefabInstance: {fileID: 0}
  m_PrefabAsset: {fileID: 0}
  m_GameObject: {fileID: 0}
  m_Enabled: 1
  m_EditorHideFlags: 0
  m_Script: {fileID: 11500000, guid: 9f6c631d933489d4ca7328a2a5983e10, type: 3}
  m_Name: No Sound
  m_EditorClassIdentifier: 
  DatabaseName: General
  SoundName: No Sound
  IgnoreListenerPause: 1
  Volume:
    MinValue: 0
    MaxValue: 0
  Pitch:
    MinValue: 0
    MaxValue: 0
  SpatialBlend: 0
  Loop: 0
  Mode: 0
  ResetSequenceAfterInactiveTime: 0
  SequenceResetTime: 5
  Sounds: []
